{
  "project_info": {
    "project_number": "498433460331",
    "firebase_url": "https://testing1-1c2a9.firebaseio.com",
    "project_id": "testing1-1c2a9",
    "storage_bucket": "testing1-1c2a9.appspot.com"
  },
  "client": [
    {
      "client_info": {
        "mobilesdk_app_id": "1:498433460331:android:e7f4e23a6795639bb7092e",
        "android_client_info": {
          "package_name": "ie.wit"
        }
      },
      "oauth_client": [
        {
          "client_id": "498433460331-2dl5pfsdjrn4fg5g34rcout6a9ar21sv.apps.googleusercontent.com",
          "client_type": 1,
          "android_info": {
            "package_name": "ie.wit",
            "certificate_hash": "3d87fe317944fdd04374a9096a282941a751768c"
          }
        },
        {
          "client_id": "498433460331-7vedrg6hv4ee7npjcq70ehkgnaovpngp.apps.googleusercontent.com",
          "client_type": 3
        }
      ],
      "api_key": [
        {
          "current_key": "AIzaSyDmrRll5GuSvwP-h8VFcy4MaJXoK3DSkV8"
        }
      ],
      "services": {
        "appinvite_service": {
          "other_platform_oauth_client": [
            {
              "client_id": "498433460331-97nes4b4obca6g4eeuscd980jika4qva.apps.googleusercontent.com",
              "client_type": 3
            }
          ]
        }
      }
    }
  ],
  "configuration_version": "1"
}